module gitlab.com/kranurag7/gh-rlz

go 1.21

require (
	github.com/charmbracelet/bubbles v0.18.0
	github.com/charmbracelet/bubbletea v0.25.0
	github.com/charmbracelet/lipgloss v0.10.0
	github.com/cli/go-gh/v2 v2.5.0
)

require (
	github.com/aymanbagabas/go-osc52/v2 v2.0.1 // indirect
	github.com/cli/safeexec v1.0.0 // indirect
	github.com/cli/shurcooL-graphql v0.0.4 // indirect
	github.com/containerd/console v1.0.4-0.20230313162750-1ae8d489ac81 // indirect
	github.com/henvic/httpretty v0.0.6 // indirect
	github.com/kr/text v0.2.0 // indirect
	github.com/lucasb-eyer/go-colorful v1.2.0 // indirect
	github.com/mattn/go-isatty v0.0.19 // indirect
	github.com/mattn/go-localereader v0.0.1 // indirect
	github.com/mattn/go-runewidth v0.0.15 // indirect
	github.com/muesli/ansi v0.0.0-20211018074035-2e021307bc4b // indirect
	github.com/muesli/cancelreader v0.2.2 // indirect
	github.com/muesli/reflow v0.3.0 // indirect
	github.com/muesli/termenv v0.15.2 // indirect
	github.com/rivo/uniseg v0.4.7 // indirect
	github.com/thlib/go-timezone-local v0.0.0-20210907160436-ef149e42d28e // indirect
	golang.org/x/sync v0.1.0 // indirect
	golang.org/x/sys v0.13.0 // indirect
	golang.org/x/term v0.13.0 // indirect
	golang.org/x/text v0.13.0 // indirect
	gopkg.in/yaml.v3 v3.0.1 // indirect
)
